%YAML 1.1
%TAG !u! tag:unity3d.com,2011:
--- !u!114 &11400000
MonoBehaviour:
  m_ObjectHideFlags: 0
  m_CorrespondingSourceObject: {fileID: 0}
  m_PrefabInstance: {fileID: 0}
  m_PrefabAsset: {fileID: 0}
  m_GameObject: {fileID: 0}
  m_Enabled: 1
  m_EditorHideFlags: 0
  m_Script: {fileID: 11500000, guid: 86a8d995d6b5e7a46adf1caf22472693, type: 3}
  m_Name: DuckTile
  m_EditorClassIdentifier: 
  tileName: Duck
  sprite: {fileID: 21300000, guid: 72f3f069071298f42ad0b97fc5614432, type: 3}
  audioClip: {fileID: 8300000, guid: 7c172ecbdbf9adb4e9676cd73da7d239, type: 3}
  audioClipVolume: 0.6
