%YAML 1.1
%TAG !u! tag:unity3d.com,2011:
--- !u!114 &11400000
MonoBehaviour:
  m_ObjectHideFlags: 0
  m_CorrespondingSourceObject: {fileID: 0}
  m_PrefabInstance: {fileID: 0}
  m_PrefabAsset: {fileID: 0}
  m_GameObject: {fileID: 0}
  m_Enabled: 1
  m_EditorHideFlags: 0
  m_Script: {fileID: 11500000, guid: 86a8d995d6b5e7a46adf1caf22472693, type: 3}
  m_Name: ElephantTile
  m_EditorClassIdentifier: 
  tileName: Elephant
  sprite: {fileID: 21300000, guid: 8f3b881f6ce3f1646a1a65e741222841, type: 3}
  audioClip: {fileID: 8300000, guid: 52f82dccab1b21d45826ef6497fc218f, type: 3}
  audioClipVolume: 0.3
