%YAML 1.1
%TAG !u! tag:unity3d.com,2011:
--- !u!114 &11400000
MonoBehaviour:
  m_ObjectHideFlags: 0
  m_CorrespondingSourceObject: {fileID: 0}
  m_PrefabInstance: {fileID: 0}
  m_PrefabAsset: {fileID: 0}
  m_GameObject: {fileID: 0}
  m_Enabled: 1
  m_EditorHideFlags: 0
  m_Script: {fileID: 11500000, guid: 86a8d995d6b5e7a46adf1caf22472693, type: 3}
  m_Name: WhaleTile
  m_EditorClassIdentifier: 
  tileName: Whale
  sprite: {fileID: 21300000, guid: 9ce08c65c0ec4434ab3e3bc392dc0bb6, type: 3}
  audioClip: {fileID: 8300000, guid: 7ca10976aa9452a458fcbf49891247d9, type: 3}
  audioClipVolume: 0.75
